<?xml version="1.0" encoding="utf-8"?>
<!-- Generator: Adobe Illustrator 21.0.0, SVG Export Plug-In . SVG Version: 6.00 Build 0)  -->
<svg version="1.1" id="Layer_1" xmlns="http://www.w3.org/2000/svg" xmlns:xlink="http://www.w3.org/1999/xlink" x="0px" y="0px"
	 viewBox="0 0 654 235" style="enable-background:new 0 0 654 235;" xml:space="preserve">
<style type="text/css">
	.st0{fill:#00A7E0;}
	.st1{fill:#EC1C24;}
	.st2{fill:#F9EC00;}
	.st3{fill:#009F50;}
	.st4{fill:#30318E;}
	.st5{fill:#EC1164;}
	.st6{fill:#F17F21;}
	.st7{fill:#AFD136;}
	.st8{fill:#FFFFFF;}
	.st9{fill:#727270;}
</style>
<polygon class="st0" points="109.4,105.6 87.8,55.7 119.8,6.6 139.2,49.7 127.2,54.7 "/>
<polygon class="st1" points="107.1,106.5 56.6,86.5 44.4,29.2 88.7,45.9 83.7,57.9 "/>
<polygon class="st2" points="106.1,108.7 56.2,130.4 7.1,98.4 50.2,78.9 55.2,91 "/>
<polygon class="st3" points="107,111 87,161.6 29.7,173.7 46.4,129.5 58.4,134.5 "/>
<polygon class="st4" points="109.2,112 130.9,161.9 98.9,211.1 79.4,167.9 91.5,163 "/>
<polygon class="st5" points="111.5,111.2 162.1,131.1 174.2,188.5 130,171.8 135,159.8 "/>
<polygon class="st6" points="112.5,108.9 162.4,87.3 211.6,119.3 168.4,138.7 163.5,126.7 "/>
<polygon class="st7" points="111.7,106.6 131.6,56 189,43.9 172.3,88.2 160.3,83.2 "/>
<g>
	<path d="M465.2,224.5c-4.3,0-8.4-0.8-12.2-2.4c-3.8-1.6-7.1-3.8-9.9-6.6c-2.8-2.8-5.1-6-6.7-9.8c-1.6-3.7-2.4-7.8-2.4-12
		s0.8-8.2,2.4-12c1.6-3.7,3.9-7,6.7-9.8c2.8-2.7,6.2-4.9,9.9-6.6c3.8-1.6,7.9-2.4,12.2-2.4c3.5,0,6.7,0.4,9.6,1.2
		c2.9,0.8,5.5,2,7.8,3.4c2.3,1.5,4.5,3.3,6.3,5.3c1.8,2,3.5,4.2,5,6.6c0.6,1,0.8,2.2,0.4,3.4c-0.4,1.1-1.2,2-2.3,2.5l-10.7,4.2
		c-0.5,0.2-1.1,0.3-1.7,0.3s-1.1-0.1-1.7-0.3c-1-0.4-1.8-1-2.3-1.9c-1.2-1.9-2.7-3.4-4.4-4.4c-1.6-1-3.7-1.5-6.1-1.5
		c-1.5,0-2.9,0.3-4.3,1c-1.4,0.7-2.6,1.5-3.6,2.6c-1,1.1-1.8,2.4-2.4,3.8c-0.6,1.4-0.9,2.9-0.9,4.5c0,1.6,0.3,3.1,0.9,4.5
		c0.6,1.4,1.4,2.7,2.4,3.7c1,1.1,2.3,2,3.6,2.6c1.3,0.6,2.7,1,4.3,1c2.3,0,4.3-0.5,6.2-1.6c1.9-1.1,3.3-2.5,4.4-4.3
		c0.5-0.8,1.3-1.5,2.2-1.9c0.5-0.2,1.1-0.3,1.7-0.3c0.6,0,1.1,0.1,1.7,0.3l10.7,4.2c1.1,0.5,1.9,1.3,2.2,2.4
		c0.4,1.1,0.3,2.3-0.3,3.3l-0.1,0.1c-1.5,2.5-3.2,4.7-5.1,6.7c-1.9,2.1-4,3.9-6.4,5.3c-2.4,1.5-5,2.6-7.8,3.4
		C471.8,224.1,468.6,224.5,465.2,224.5z"/>
	<path class="st8" d="M465.2,165.5c3.3,0,6.2,0.4,8.9,1.1c2.6,0.7,5,1.8,7.2,3.1c2.1,1.3,4.1,3,5.8,4.9c1.7,1.9,3.3,4,4.7,6.3
		c0.2,0.4,0.3,0.8,0.1,1.3c-0.1,0.4-0.4,0.8-0.9,1l-10.6,4.2c-0.2,0.1-0.5,0.1-0.7,0.1c-0.2,0-0.5,0-0.7-0.1
		c-0.5-0.2-0.9-0.5-1.1-0.9c-1.4-2.3-3.2-4-5.2-5.3c-2-1.2-4.5-1.8-7.4-1.8c-1.9,0-3.7,0.4-5.3,1.2c-1.7,0.8-3.1,1.9-4.4,3.2
		c-1.2,1.3-2.2,2.9-2.9,4.6c-0.7,1.7-1,3.5-1,5.4c0,1.9,0.3,3.7,1,5.4c0.7,1.7,1.7,3.2,2.9,4.5c1.2,1.3,2.7,2.3,4.4,3.1
		c1.7,0.8,3.4,1.2,5.3,1.2c2.7,0,5.2-0.7,7.4-2c2.2-1.3,4-3,5.3-5.1c0.2-0.4,0.6-0.7,1.1-0.9c0.2-0.1,0.5-0.1,0.7-0.1s0.5,0,0.7,0.1
		l10.6,4.2c0.4,0.2,0.7,0.5,0.9,0.9c0.1,0.4,0.1,0.9-0.1,1.3c-1.4,2.3-3,4.5-4.8,6.4c-1.7,1.9-3.7,3.5-5.9,4.9
		c-2.2,1.3-4.6,2.4-7.2,3.1c-2.6,0.7-5.6,1.1-8.7,1.1c-4,0-7.7-0.7-11.2-2.2c-3.5-1.5-6.5-3.5-9.1-6c-2.6-2.5-4.7-5.5-6.2-9
		c-1.5-3.4-2.2-7.1-2.2-11s0.7-7.5,2.2-11c1.5-3.4,3.5-6.4,6.2-9c2.6-2.5,5.7-4.6,9.1-6C457.5,166.3,461.2,165.5,465.2,165.5
		 M465.2,160.5c-4.6,0-9.1,0.9-13.2,2.6c-4,1.7-7.6,4.1-10.7,7.1c-3.1,3-5.5,6.5-7.3,10.6c-1.8,4.1-2.7,8.4-2.7,13
		c0,4.6,0.9,8.9,2.7,13c1.7,4,4.2,7.6,7.3,10.6c3,3,6.6,5.3,10.7,7.1c4.1,1.8,8.5,2.6,13.2,2.6c3.6,0,7-0.4,10.1-1.3
		c3.1-0.9,5.9-2.1,8.5-3.7c2.5-1.6,4.9-3.5,6.9-5.7c1.9-2.1,3.7-4.5,5.3-7.1l0.1-0.1l0.1-0.1c0.9-1.7,1.1-3.6,0.5-5.4
		c-0.6-1.7-1.9-3.1-3.6-3.8l-0.1,0l-0.1,0l-10.6-4.2c-0.8-0.3-1.7-0.5-2.6-0.5c-0.9,0-1.8,0.2-2.7,0.5c-1.4,0.6-2.6,1.6-3.4,2.9
		c-0.9,1.4-2.1,2.6-3.6,3.5c-1.4,0.9-3,1.3-4.9,1.3c-1.1,0-2.2-0.2-3.2-0.7c-1.1-0.5-2.1-1.2-2.9-2.1c-0.8-0.8-1.4-1.8-1.9-2.9
		c-0.5-1.1-0.7-2.3-0.7-3.6c0-1.2,0.2-2.4,0.7-3.5c0.5-1.2,1.1-2.2,1.9-3c0.8-0.9,1.8-1.6,2.9-2.1c1-0.5,2-0.7,3.2-0.7
		c2,0,3.6,0.4,4.8,1.1c1.4,0.8,2.5,2,3.6,3.6c0.8,1.3,2,2.3,3.5,2.9c0.8,0.3,1.7,0.5,2.6,0.5c0.9,0,1.8-0.2,2.6-0.5l10.6-4.2l0.1,0
		l0.1,0c1.7-0.8,3-2.2,3.6-4c0.6-1.9,0.4-3.8-0.6-5.5c-1.6-2.5-3.4-4.9-5.3-7c-2-2.3-4.3-4.2-6.9-5.8c-2.5-1.6-5.4-2.8-8.5-3.7
		C472.4,161,468.9,160.5,465.2,160.5L465.2,160.5z"/>
</g>
<g>
	<path d="M534,223.5c-1.1,0-2.1-0.3-2.9-0.9c-0.8-0.5-1.4-1.2-1.9-2l-0.1-0.1l-2-4.4c-0.1-0.1-0.2-0.2-0.3-0.3
		c-0.1,0-0.1-0.1-0.1-0.1l-15.7,0c0,0,0,0-0.1,0c-0.1,0.1-0.1,0.1-0.1,0.1l-2.1,4.5c-0.4,0.8-1,1.6-1.9,2.2
		c-0.9,0.6-1.9,0.9-2.9,0.9h-12.8c-0.5,0-1.1-0.1-1.6-0.3c-0.7-0.2-1.2-0.6-1.7-1.1c-0.5-0.6-0.8-1.2-0.9-2c-0.1-0.8,0-1.6,0.4-2.5
		l21.6-50.5c0.4-0.9,1-1.6,1.9-2.2c0.9-0.6,1.9-0.9,2.9-0.9h10.5c1,0,2,0.3,2.9,0.9c0.9,0.6,1.5,1.3,1.9,2.2l21.8,50.8
		c0.5,1.1,0.4,2.4-0.2,3.6c-0.4,0.8-1.5,2-3.8,2H534z M520.3,198.1c-0.3-0.8-1.3-3-1.4-3.3l-1.4,3.3H520.3z"/>
	<path class="st8" d="M524.2,166.4c0.5,0,1,0.2,1.5,0.5c0.5,0.3,0.8,0.7,1,1.2l21.8,50.8c0.2,0.4,0.2,0.9-0.1,1.4
		c-0.3,0.5-0.8,0.7-1.6,0.7H534c-0.5,0-1.1-0.2-1.5-0.5c-0.5-0.3-0.8-0.7-1.1-1.2l-2-4.5c-0.2-0.4-0.6-0.8-1.1-1.2
		c-0.5-0.3-1-0.5-1.5-0.5h-15.8c-0.5,0-1.1,0.2-1.5,0.5c-0.5,0.3-0.8,0.7-1,1.2l-2.1,4.5c-0.2,0.4-0.5,0.8-1,1.2
		c-0.5,0.3-1,0.5-1.5,0.5h-12.8c-0.2,0-0.5,0-0.8-0.1c-0.3-0.1-0.5-0.2-0.7-0.4c-0.2-0.2-0.3-0.4-0.3-0.7c0-0.3,0-0.6,0.2-1
		l21.7-50.6c0.2-0.4,0.5-0.8,1-1.2c0.5-0.3,1-0.5,1.5-0.5H524.2 M515.6,200.6h6.6c0.5,0,0.9-0.2,1.1-0.5c0.2-0.3,0.2-0.7,0-1.2
		c-0.5-1.2-1.1-2.7-1.8-4.4c-0.7-1.7-1.3-3.2-1.9-4.7c-0.2-0.4-0.4-0.7-0.7-0.7c-0.2,0-0.5,0.2-0.7,0.7l-3.7,9
		c-0.2,0.4-0.2,0.8,0,1.2C514.7,200.4,515.1,200.6,515.6,200.6 M524.2,161.4h-10.5c-1.5,0-3.1,0.5-4.4,1.4c-1.3,0.9-2.2,2-2.8,3.3
		l0,0l0,0L485,216.6c-0.6,1.3-0.8,2.6-0.6,3.9c0.2,1.2,0.7,2.3,1.5,3.2c0.7,0.8,1.7,1.5,2.7,1.9c0.8,0.3,1.7,0.4,2.5,0.4H504
		c1.5,0,3-0.5,4.3-1.4c1.2-0.8,2.1-1.9,2.7-3.2l1.5-3.2h12.9l1.4,3.2l0.1,0.2l0.1,0.2c0.6,1.1,1.5,2.1,2.6,2.9
		c1.3,0.9,2.8,1.4,4.3,1.4h12.8c2.6,0,4.8-1.2,6-3.3c1-1.8,1.1-4,0.3-5.8l-21.8-50.8l0,0l0,0c-0.6-1.3-1.5-2.4-2.7-3.2
		C527.2,161.9,525.7,161.4,524.2,161.4L524.2,161.4z"/>
</g>
<g>
	<path d="M584.2,223.5c-0.9,0-1.8-0.2-2.7-0.7c-0.9-0.4-1.7-1-2.2-1.8c-1.6-2.1-3.2-4.2-4.7-6.4c-1.6-2.2-3.1-4.4-4.7-6.5
		c0,0,0,0,0,0c0,0-0.1-0.1-0.3-0.2c-0.3-0.1-0.4-0.1-0.4-0.1h-0.9v11.4c0,1.2-0.4,2.2-1.3,3c-0.8,0.8-1.9,1.3-3,1.3h-11.2
		c-1.2,0-2.2-0.4-3-1.3c-0.8-0.8-1.3-1.9-1.3-3v-51.1c0-1.2,0.4-2.2,1.3-3c0.8-0.8,1.9-1.3,3-1.3h23.2c3.2,0,6.2,0.5,8.9,1.6
		c2.8,1.1,5.1,2.7,7.1,4.6c1.9,2,3.5,4.3,4.6,7c1.1,2.7,1.6,5.7,1.6,8.9c0,1.8-0.2,3.6-0.6,5.3c-0.4,1.7-1,3.4-1.8,5
		c-0.8,1.6-1.7,3-2.8,4.3c-0.9,1.1-1.9,2-3,2.8c1.7,2.2,3.5,4.5,5.3,6.8c2.1,2.7,4,5.1,5.6,7.3c0.8,1,1,2.3,0.6,3.6
		c-0.5,1.5-1.8,2.5-3.4,2.5H584.2z M575.3,189.1c0.3,0,0.7-0.1,1-0.2c0.3-0.1,0.7-0.3,1-0.6c0.3-0.3,0.5-0.6,0.7-1
		c0.2-0.3,0.3-0.8,0.3-1.3c0-0.2,0-0.5-0.2-1.1c-0.1-0.4-0.3-0.8-0.5-1.2c-0.2-0.3-0.5-0.6-0.9-0.8c-0.3-0.2-0.8-0.3-1.4-0.3h-7.2
		v6.5H575.3z"/>
	<path class="st8" d="M575.9,166.4c2.9,0,5.6,0.5,8,1.5c2.4,1,4.5,2.3,6.2,4.1c1.7,1.7,3.1,3.8,4,6.2c1,2.4,1.5,5,1.5,7.9
		c0,1.6-0.2,3.2-0.6,4.7c-0.4,1.6-0.9,3.1-1.6,4.4c-0.7,1.4-1.5,2.7-2.5,3.8c-0.9,1.1-2,2.1-3.2,2.8c-0.4,0.3-0.7,0.7-0.8,1.1
		c-0.1,0.4,0,0.8,0.3,1.2c1.9,2.5,3.9,5.1,6,7.7c2.1,2.6,4,5.1,5.6,7.2c0.3,0.4,0.4,0.8,0.2,1.3c-0.1,0.5-0.5,0.7-1,0.7h-13.9
		c-0.5,0-1-0.1-1.6-0.4c-0.6-0.3-1-0.6-1.3-1c-1.6-2.1-3.2-4.2-4.7-6.3c-1.6-2.1-3.1-4.3-4.6-6.5c-0.3-0.4-0.7-0.7-1.3-1
		c-0.5-0.3-1.1-0.4-1.6-0.4h-1.6c-0.5,0-0.9,0.2-1.3,0.5c-0.3,0.3-0.5,0.8-0.5,1.3v12.1c0,0.5-0.2,0.9-0.5,1.3
		c-0.3,0.3-0.8,0.5-1.3,0.5h-11.2c-0.5,0-0.9-0.2-1.3-0.5c-0.3-0.3-0.5-0.8-0.5-1.3v-51.1c0-0.5,0.2-0.9,0.5-1.3
		c0.3-0.3,0.8-0.5,1.3-0.5H575.9 M567.4,191.6h7.9c0.6,0,1.2-0.1,1.9-0.3c0.6-0.2,1.2-0.6,1.8-1c0.5-0.5,1-1.1,1.3-1.8
		c0.3-0.7,0.5-1.5,0.5-2.5c0-0.5-0.1-1.1-0.3-1.8c-0.2-0.7-0.5-1.3-0.9-1.9c-0.4-0.6-1-1.1-1.7-1.6c-0.7-0.4-1.6-0.6-2.6-0.6h-7.9
		c-0.5,0-0.9,0.2-1.3,0.5c-0.3,0.3-0.5,0.8-0.5,1.3v7.9c0,0.5,0.2,0.9,0.5,1.3C566.5,191.4,566.9,191.6,567.4,191.6 M575.9,161.4
		h-23.2c-1.8,0-3.5,0.7-4.8,2c-1.3,1.3-2,3-2,4.8v51.1c0,1.8,0.7,3.5,2,4.8c1.3,1.3,3,2,4.8,2h11.2c1.8,0,3.5-0.7,4.8-2
		c1.3-1.3,2-3,2-4.8v-5.6c0.6,0.9,1.2,1.7,1.8,2.6c1.6,2.2,3.2,4.3,4.8,6.4c0.8,1,1.8,1.9,3.1,2.5c1.2,0.6,2.5,0.9,3.8,0.9h13.9
		c2.7,0,4.9-1.7,5.7-4.2c0.6-2,0.3-4.1-1-5.8c-1.7-2.2-3.6-4.7-5.7-7.4c-1.3-1.7-2.6-3.3-3.8-4.9c0.5-0.5,1-1,1.5-1.6
		c1.2-1.4,2.2-3,3.1-4.8c0.9-1.7,1.5-3.6,2-5.5c0.5-1.9,0.7-3.9,0.7-5.9c0-3.5-0.6-6.8-1.8-9.8c-1.2-3-2.9-5.6-5.1-7.8
		c-2.2-2.2-4.9-4-7.9-5.2C582.7,162,579.4,161.4,575.9,161.4L575.9,161.4z M570.7,185.1h4.7c0.1,0,0.2,0,0.2,0c0,0,0,0,0,0
		c0.1,0.1,0.1,0.3,0.2,0.4c0.1,0.4,0.1,0.5,0.1,0.5c0,0.1,0,0.2,0,0.3c0,0.1-0.1,0.1-0.1,0.2c-0.1,0.1-0.1,0.1-0.2,0.1
		c-0.2,0.1-0.2,0.1-0.2,0.1l-4.6,0V185.1L570.7,185.1z"/>
</g>
<g>
	<path d="M606.3,223.5c-1.2,0-2.2-0.4-3-1.3c-0.8-0.8-1.3-1.9-1.3-3v-51.1c0-1.2,0.4-2.2,1.3-3c0.8-0.8,1.9-1.3,3-1.3h38
		c1.2,0,2.2,0.4,3,1.3c0.8,0.8,1.3,1.9,1.3,3v10.2c0,1.2-0.4,2.2-1.3,3c-0.8,0.8-1.9,1.3-3,1.3h-22.5v1.7h19.5c1.2,0,2.2,0.4,3,1.3
		c0.8,0.8,1.3,1.9,1.3,3v10.3c0,1.2-0.4,2.2-1.3,3c-0.8,0.8-1.9,1.3-3,1.3h-19.5v1.4h22.5c1.2,0,2.2,0.4,3,1.3
		c0.8,0.8,1.3,1.9,1.3,3v10.3c0,1.2-0.4,2.2-1.3,3c-0.8,0.8-1.9,1.3-3,1.3H606.3z"/>
	<path class="st8" d="M644.3,166.4c0.5,0,0.9,0.2,1.3,0.5c0.3,0.3,0.5,0.8,0.5,1.3v10.2c0,0.5-0.2,0.9-0.5,1.3
		c-0.3,0.3-0.8,0.5-1.3,0.5h-23.2c-0.5,0-0.9,0.2-1.3,0.5c-0.3,0.3-0.5,0.8-0.5,1.3v3.1c0,0.5,0.2,0.9,0.5,1.3
		c0.3,0.3,0.8,0.5,1.3,0.5h20.2c0.5,0,0.9,0.2,1.3,0.5c0.3,0.3,0.5,0.8,0.5,1.3v10.3c0,0.5-0.2,0.9-0.5,1.3
		c-0.3,0.3-0.8,0.5-1.3,0.5h-20.2c-0.5,0-0.9,0.2-1.3,0.5c-0.3,0.3-0.5,0.8-0.5,1.3v2.8c0,0.5,0.2,0.9,0.5,1.3
		c0.3,0.3,0.8,0.5,1.3,0.5h23.2c0.5,0,0.9,0.2,1.3,0.5c0.3,0.3,0.5,0.8,0.5,1.3v10.3c0,0.5-0.2,0.9-0.5,1.3
		c-0.3,0.3-0.8,0.5-1.3,0.5h-38c-0.5,0-0.9-0.2-1.3-0.5c-0.3-0.3-0.5-0.8-0.5-1.3v-51.1c0-0.5,0.2-0.9,0.5-1.3
		c0.3-0.3,0.8-0.5,1.3-0.5H644.3 M644.3,161.4h-38c-1.8,0-3.5,0.7-4.8,2c-1.3,1.3-2,3-2,4.8v51.1c0,1.8,0.7,3.5,2,4.8
		c1.3,1.3,3,2,4.8,2h38c1.8,0,3.5-0.7,4.8-2c1.3-1.3,2-3,2-4.8v-10.3c0-1.8-0.7-3.5-2-4.8c-0.6-0.6-1.3-1.1-2.1-1.4
		c0.7-1.1,1.1-2.4,1.1-3.8v-10.3c0-1.5-0.5-2.8-1.3-4c0.8-0.3,1.6-0.8,2.3-1.5c1.3-1.3,2-3,2-4.8v-10.2c0-1.8-0.7-3.5-2-4.8
		C647.8,162.1,646.1,161.4,644.3,161.4L644.3,161.4z"/>
</g>
<g>
	<g>
		<path class="st9" d="M102.1,158.7c-1.5,0-2.8-0.5-3.8-1.6c-1-1-1.6-2.3-1.6-3.8V83.8c0-1.5,0.5-2.8,1.6-3.8c1-1,2.4-1.6,3.8-1.6
			h31.1c4.2,0,8.2,0.8,11.9,2.4c3.7,1.6,6.9,3.8,9.7,6.5c2.7,2.8,4.9,6,6.5,9.6c1.6,3.7,2.4,7.7,2.4,11.9c0,4.1-0.7,8-2,11.6
			c-1.4,3.7-3.5,6.9-6.3,9.6c-2.8,2.7-6.2,4.8-10.3,6.3c-4,1.5-8.7,2.3-14,2.3h-8.3v14.6c0,1.5-0.5,2.8-1.6,3.8
			c-1,1-2.3,1.6-3.8,1.6H102.1z M133.1,113.8c2.1,0,2.8-0.7,3.3-1.2c0.8-1.1,1.2-2.4,1.2-3.9c0-0.7-0.1-1.5-0.4-2.2
			c-0.2-0.7-0.6-1.3-1.1-1.8c-0.5-0.5-1.1-1-1.8-1.3c-0.7-0.3-1.5-0.5-2.5-0.5h-9.1v10.8H133.1z"/>
		<path class="st8" d="M133.1,80.9c3.8,0,7.5,0.7,10.9,2.2c3.4,1.4,6.4,3.5,8.9,6c2.5,2.5,4.5,5.5,6,8.9c1.5,3.4,2.2,7,2.2,10.8
			c0,3.8-0.6,7.5-1.9,10.8c-1.2,3.3-3.1,6.3-5.7,8.7c-2.5,2.4-5.7,4.4-9.4,5.8c-3.7,1.4-8.2,2.1-13.1,2.1h-8.9c-0.6,0-1,0.2-1.4,0.6
			c-0.4,0.4-0.6,0.8-0.6,1.4v15.1c0,0.8-0.3,1.5-0.8,2.1c-0.6,0.6-1.2,0.8-2,0.8h-15.3c-0.8,0-1.5-0.3-2-0.8
			c-0.6-0.6-0.8-1.3-0.8-2.1V83.8c0-0.8,0.3-1.5,0.8-2.1c0.6-0.6,1.3-0.8,2.1-0.8H133.1 M122.2,116.3h10.9c2.4,0,4.2-0.7,5.3-2.3
			c1.1-1.6,1.7-3.4,1.7-5.3c0-1-0.2-2-0.5-3c-0.4-1-0.9-1.9-1.6-2.6c-0.7-0.8-1.6-1.4-2.6-1.9c-1-0.5-2.2-0.7-3.6-0.7h-9.6
			c-0.6,0-1,0.2-1.4,0.6c-0.4,0.4-0.6,0.8-0.6,1.4v11.9c0,0.5,0.2,1,0.6,1.4C121.2,116.2,121.6,116.3,122.2,116.3 M133.1,75.9h-31.1
			c-2.1,0-4.1,0.8-5.6,2.3c-1.5,1.5-2.3,3.5-2.3,5.6v69.4c0,2.1,0.8,4.1,2.3,5.6c1.5,1.5,3.5,2.3,5.6,2.3h15.3
			c2.1,0,4.1-0.8,5.6-2.3c1.5-1.5,2.3-3.5,2.3-5.6v-12.1h5.8c5.6,0,10.6-0.8,14.9-2.4c4.4-1.6,8.1-4,11.1-6.9
			c3.1-3,5.4-6.5,6.9-10.5c1.4-3.9,2.2-8.1,2.2-12.5c0-4.5-0.9-8.9-2.6-12.9c-1.7-3.9-4.1-7.4-7-10.4c-3-3-6.5-5.4-10.5-7.1
			C142,76.8,137.7,75.9,133.1,75.9L133.1,75.9z M125.2,105.5h6.6c0.6,0,1.1,0.1,1.5,0.2c0.4,0.2,0.8,0.4,1,0.7
			c0.2,0.3,0.4,0.6,0.5,0.9c0.2,0.4,0.2,0.9,0.2,1.3c0,0.9-0.2,1.7-0.8,2.4c-0.1,0.1-0.5,0.2-1.2,0.2h-7.9V105.5L125.2,105.5z"/>
	</g>
	<g>
		<path class="st9" d="M167.2,158.7c-1.6,0-2.9-0.6-3.9-1.7c-0.9-1-1.4-2.3-1.4-3.7V83.9c0-1.4,0.5-2.7,1.4-3.7
			c1-1.1,2.4-1.7,3.9-1.7h15.3c1.5,0,2.8,0.5,3.8,1.6c1,1,1.6,2.4,1.6,3.8v69.3c0,1.5-0.5,2.8-1.6,3.8c-1,1-2.3,1.6-3.8,1.6H167.2z"
			/>
		<path class="st8" d="M182.5,81c0.8,0,1.5,0.3,2,0.8c0.6,0.6,0.8,1.3,0.8,2.1v69.3c0,0.8-0.3,1.5-0.8,2.1c-0.6,0.6-1.2,0.8-2,0.8
			h-15.3c-0.9,0-1.6-0.3-2.1-0.9c-0.5-0.6-0.8-1.2-0.8-2V83.9c0-0.8,0.3-1.5,0.8-2c0.5-0.6,1.2-0.9,2.1-0.9H182.5 M182.5,76h-15.3
			c-2.3,0-4.3,0.9-5.8,2.5c-1.4,1.5-2.1,3.4-2.1,5.4v69.3c0,2.1,0.7,3.9,2.1,5.4c1.5,1.6,3.5,2.5,5.8,2.5h15.3
			c2.1,0,4.1-0.8,5.6-2.3c1.5-1.5,2.3-3.5,2.3-5.6V83.9c0-2.1-0.8-4.1-2.3-5.6C186.6,76.8,184.6,76,182.5,76L182.5,76z"/>
	</g>
	<g>
		<path class="st9" d="M246.4,158.7c-1.2,0-2.4-0.3-3.6-1c-1.1-0.6-2-1.4-2.7-2.2l-23-32.4v30.3c0,1.5-0.5,2.8-1.6,3.8
			c-1,1-2.4,1.6-3.8,1.6h-15.2c-1.5,0-2.8-0.5-3.8-1.6c-1-1-1.6-2.4-1.6-3.8V83.8c0-1.5,0.5-2.8,1.6-3.8c1-1,2.4-1.6,3.8-1.6h15.2
			c1.1,0,2.3,0.3,3.5,0.9c1.2,0.6,2.1,1.3,2.8,2.2l23,32.5V83.8c0-1.5,0.5-2.8,1.6-3.8c1-1,2.4-1.6,3.8-1.6h15
			c1.5,0,2.8,0.5,3.8,1.6c1,1,1.6,2.4,1.6,3.8v69.4c0,1.5-0.5,2.8-1.6,3.8c-1,1-2.3,1.6-3.8,1.6H246.4z"/>
		<path class="st8" d="M261.4,80.9c0.8,0,1.5,0.3,2.1,0.8c0.6,0.6,0.8,1.3,0.8,2.1v69.4c0,0.8-0.3,1.5-0.8,2.1
			c-0.6,0.6-1.2,0.8-2.1,0.8h-15c-0.8,0-1.5-0.2-2.3-0.7c-0.8-0.4-1.4-1-1.9-1.6l-26.4-37.3c-0.3-0.4-0.5-0.5-0.7-0.5
			c0,0-0.1,0-0.1,0c-0.1,0-0.3,0.1-0.3,0.7v36.3c0,0.8-0.3,1.5-0.9,2.1c-0.6,0.6-1.3,0.8-2.1,0.8h-15.2c-0.8,0-1.5-0.3-2.1-0.8
			c-0.6-0.6-0.9-1.3-0.9-2.1V83.8c0-0.8,0.3-1.5,0.8-2.1c0.6-0.6,1.3-0.8,2.1-0.8h15.2c0.7,0,1.5,0.2,2.3,0.6
			c0.8,0.4,1.4,0.9,1.9,1.5l26.4,37.3c0.3,0.3,0.5,0.5,0.7,0.5c0,0,0,0,0.1,0c0.1,0,0.3,0,0.3-0.7V83.8c0-0.8,0.3-1.5,0.8-2.1
			c0.6-0.6,1.3-0.8,2.1-0.8H261.4 M261.4,75.9h-15c-2.1,0-4.1,0.8-5.6,2.3c-1.5,1.5-2.3,3.5-2.3,5.6v22.3l-18.4-26l0-0.1l0-0.1
			c-0.9-1.2-2.1-2.2-3.6-3c-1.5-0.8-3.1-1.1-4.6-1.1h-15.2c-2.1,0-4.1,0.8-5.6,2.3c-1.5,1.5-2.3,3.5-2.3,5.6v69.4
			c0,2.1,0.8,4.1,2.3,5.6c1.5,1.5,3.5,2.3,5.6,2.3h15.2c2.1,0,4.1-0.8,5.6-2.3c1.5-1.5,2.3-3.5,2.3-5.6v-22.4l18.5,26l0,0.1l0,0
			c0.9,1.2,2,2.2,3.5,2.9c1.6,0.8,3.1,1.3,4.7,1.3h15c2.1,0,4.1-0.8,5.6-2.3c1.5-1.5,2.3-3.5,2.3-5.6V83.8c0-2.1-0.8-4.1-2.3-5.6
			C265.5,76.7,263.5,75.9,261.4,75.9L261.4,75.9z"/>
	</g>
	<g>
		<path class="st9" d="M340.7,158.7c-1.4,0-2.7-0.4-3.8-1.2c-1.1-0.8-1.9-1.9-2.3-3.2l-9.4-28.4l-9.4,28.5c-0.4,1.2-1.2,2.3-2.3,3.2
			c-1.1,0.8-2.4,1.2-3.8,1.2h-13.1c-1.4,0-2.8-0.5-3.9-1.4c-1.1-0.9-1.8-1.9-2.1-3l-24.3-68.8c-0.8-2-0.4-3.6,0.1-4.5
			c0.8-1.6,2.4-2.4,4.2-2.4h16.5c1.3,0,2.6,0.4,3.7,1.2c1.1,0.8,1.9,1.8,2.3,3l9.8,28.6l9.4-28.5c0.4-1.2,1.2-2.3,2.3-3.1
			c1.1-0.8,2.4-1.2,3.8-1.2h13.5c1.4,0,2.7,0.4,3.8,1.2c1.1,0.8,1.9,1.9,2.3,3.2l9.5,28.8l10-29.1l0-0.1c0.5-1.1,1.3-2.1,2.3-2.8
			c1.1-0.8,2.4-1.2,3.8-1.2H380c1.9,0,3.4,0.9,4.2,2.6c0.6,1.3,0.7,2.7,0.2,4l-24.6,69.5c-0.5,1.2-1.3,2.2-2.3,3
			c-1.1,0.8-2.4,1.2-3.8,1.2H340.7z"/>
		<path class="st8" d="M380,80.9c1.2,0,1.7,0.6,1.9,1.1c0.3,0.7,0.4,1.4,0.1,2.1l-24.6,69.3c-0.3,0.8-0.8,1.4-1.5,1.9
			c-0.7,0.5-1.5,0.7-2.3,0.7h-13.1c-0.8,0-1.6-0.3-2.3-0.7c-0.7-0.5-1.2-1.1-1.4-1.9l-11.2-33.8c-0.2-0.7-0.5-0.7-0.6-0.7
			s-0.4,0-0.6,0.7l-11.2,33.8c-0.2,0.8-0.7,1.4-1.4,1.9c-0.7,0.5-1.5,0.7-2.3,0.7h-13.1c-0.9,0-1.6-0.3-2.3-0.9
			c-0.7-0.6-1.1-1.2-1.3-1.8l-24.3-69c-0.4-0.9-0.4-1.8,0-2.5c0.3-0.5,0.8-1.1,2-1.1h16.5c0.8,0,1.5,0.3,2.2,0.7
			c0.7,0.5,1.2,1.1,1.4,1.8l11.6,33.8c0.2,0.7,0.5,0.7,0.6,0.7c0.1,0,0.4,0,0.6-0.7l11.2-33.7c0.2-0.8,0.7-1.4,1.4-1.9
			c0.7-0.5,1.5-0.7,2.3-0.7h13.5c0.8,0,1.6,0.3,2.3,0.7c0.7,0.5,1.2,1.1,1.4,1.9l11.2,33.9c0.2,0.7,0.5,0.7,0.6,0.7
			c0.1,0,0.4,0,0.7-0.7l11.7-34c0.3-0.7,0.8-1.3,1.5-1.8c0.7-0.5,1.5-0.7,2.3-0.7H380 M380,75.9h-16.4c-1.9,0-3.7,0.6-5.2,1.7
			c-1.4,1-2.5,2.3-3.1,3.8l-0.1,0.2l-0.1,0.2l-7.5,22l-7.2-21.7c-0.6-1.8-1.7-3.3-3.2-4.5c-1.5-1.1-3.3-1.7-5.2-1.7h-13.5
			c-1.9,0-3.7,0.6-5.2,1.7c-1.6,1.1-2.7,2.7-3.2,4.4l-7.1,21.4l-7.4-21.6c-0.5-1.6-1.7-3.1-3.2-4.2c-1.5-1.1-3.3-1.7-5.1-1.7h-16.5
			c-2.8,0-5.1,1.4-6.4,3.8c-1,2-1.1,4.3-0.2,6.6l24.3,68.7c0.5,1.6,1.4,3,2.8,4.2c1.6,1.3,3.5,2,5.5,2h13.1c1.9,0,3.7-0.6,5.2-1.7
			c1.5-1.1,2.7-2.7,3.2-4.4l7-21.3l7,21.3c0.6,1.8,1.7,3.3,3.2,4.5c1.5,1.1,3.3,1.7,5.2,1.7h13.1c1.9,0,3.7-0.6,5.2-1.7
			c1.5-1,2.5-2.4,3.2-4.1l0-0.1l0-0.1l24.6-69.3l0,0l0,0c0.7-1.9,0.5-4-0.3-5.8C385.3,77.4,382.9,75.9,380,75.9L380,75.9z"/>
	</g>
	<g>
		<path class="st9" d="M434.4,158.7c-1.6,0-2.9-0.6-4-1.7c-0.9-1-1.4-2.3-1.4-3.7v-21.2h-19.8v21.2c0,1.5-0.5,2.8-1.6,3.8
			c-1,1-2.4,1.6-3.8,1.6h-15.2c-1.6,0-2.9-0.6-4-1.7c-1-1-1.5-2.3-1.5-3.7V83.8c0-1.4,0.5-2.7,1.5-3.7c1-1.1,2.4-1.7,4-1.7h15.2
			c1.5,0,2.8,0.5,3.8,1.6c1,1,1.6,2.4,1.6,3.8v23.4l19.8,0V83.8c0-1.4,0.5-2.7,1.5-3.7c1-1.1,2.4-1.7,3.9-1.7h15.2
			c1.5,0,2.8,0.5,3.8,1.6c1,1,1.6,2.4,1.6,3.8v69.4c0,1.5-0.5,2.8-1.6,3.8c-1,1-2.4,1.6-3.8,1.6H434.4z"/>
		<path class="st8" d="M449.6,80.9c0.8,0,1.5,0.3,2.1,0.8c0.6,0.6,0.8,1.3,0.8,2.1v69.4c0,0.8-0.3,1.5-0.8,2.1
			c-0.6,0.6-1.3,0.8-2.1,0.8h-15.2c-0.9,0-1.6-0.3-2.1-0.9c-0.5-0.6-0.8-1.2-0.8-2v-21.7c0-0.6-0.2-1-0.6-1.4
			c-0.4-0.4-0.8-0.6-1.4-0.6h-20.8c-0.6,0-1.1,0.2-1.4,0.6c-0.4,0.4-0.5,0.9-0.5,1.4v21.7c0,0.8-0.3,1.5-0.9,2.1
			c-0.6,0.6-1.3,0.8-2.1,0.8h-15.2c-0.9,0-1.6-0.3-2.1-0.9c-0.5-0.6-0.8-1.2-0.8-2V83.8c0-0.8,0.3-1.5,0.8-2
			c0.5-0.6,1.2-0.9,2.1-0.9h15.2c0.8,0,1.5,0.3,2.1,0.8c0.6,0.6,0.9,1.3,0.9,2v24c0,0.6,0.2,1,0.5,1.4c0.3,0.4,0.8,0.6,1.4,0.6h20.8
			c0.6,0,1-0.2,1.4-0.6c0.4-0.4,0.6-0.8,0.6-1.4v-24c0-0.8,0.3-1.5,0.8-2c0.5-0.6,1.2-0.9,2.1-0.9H449.6 M449.6,75.9h-15.2
			c-2.3,0-4.3,0.9-5.8,2.5c-1.4,1.5-2.1,3.4-2.1,5.4v20.9h-14.8V83.8c0-2.1-0.8-4.1-2.3-5.6c-1.5-1.5-3.5-2.3-5.6-2.3h-15.2
			c-2.3,0-4.3,0.9-5.8,2.4c-1.4,1.5-2.1,3.4-2.1,5.5v69.4c0,2.1,0.7,4,2.1,5.5c1.5,1.6,3.5,2.4,5.8,2.4h15.2c2.1,0,4.1-0.8,5.6-2.3
			c1.5-1.5,2.3-3.5,2.3-5.6v-18.7h14.8v18.7c0,2.1,0.7,4,2.1,5.5c1.5,1.6,3.5,2.4,5.8,2.4h15.2c2.1,0,4.1-0.8,5.6-2.3
			c1.5-1.5,2.3-3.5,2.3-5.6V83.8c0-2.1-0.8-4.1-2.3-5.6C453.7,76.7,451.7,75.9,449.6,75.9L449.6,75.9z"/>
	</g>
	<g>
		<path class="st9" d="M463.8,158.7c-1.5,0-2.8-0.5-3.8-1.6c-1-1-1.6-2.3-1.6-3.8V83.8c0-1.5,0.5-2.8,1.6-3.8c1-1,2.4-1.6,3.8-1.6
			h51.7c1.5,0,2.8,0.5,3.8,1.6c1,1,1.6,2.4,1.6,3.8v13.8c0,1.5-0.5,2.8-1.6,3.8c-1,1-2.4,1.6-3.8,1.6h-31v3.2h27
			c1.5,0,2.8,0.5,3.8,1.6c1,1,1.6,2.4,1.6,3.8v14c0,1.5-0.5,2.8-1.6,3.8s-2.4,1.6-3.8,1.6h-27v2.8h31c1.5,0,2.8,0.5,3.8,1.6
			c1,1,1.6,2.4,1.6,3.8v14c0,1.5-0.5,2.8-1.6,3.8c-1,1-2.3,1.6-3.8,1.6H463.8z"/>
		<path class="st8" d="M515.5,80.9c0.8,0,1.5,0.3,2.1,0.8c0.6,0.6,0.8,1.3,0.8,2.1v13.8c0,0.8-0.3,1.5-0.8,2.1
			c-0.6,0.6-1.3,0.8-2.1,0.8h-31.6c-0.6,0-1,0.2-1.4,0.6c-0.4,0.4-0.6,0.8-0.6,1.4v4.3c0,0.6,0.2,1,0.6,1.4c0.4,0.4,0.8,0.6,1.4,0.6
			h27.5c0.8,0,1.5,0.3,2.1,0.8c0.6,0.6,0.8,1.3,0.8,2.1v14c0,0.8-0.3,1.5-0.8,2.1c-0.6,0.6-1.3,0.8-2.1,0.8h-27.5
			c-0.6,0-1,0.2-1.4,0.6c-0.4,0.4-0.6,0.8-0.6,1.4v3.9c0,0.6,0.2,1,0.6,1.4c0.4,0.4,0.8,0.6,1.4,0.6h31.6c0.8,0,1.5,0.3,2.1,0.8
			c0.6,0.6,0.8,1.3,0.8,2.1v14c0,0.8-0.3,1.5-0.8,2.1c-0.6,0.6-1.3,0.8-2.1,0.8h-51.7c-0.8,0-1.5-0.3-2.1-0.8
			c-0.6-0.6-0.8-1.3-0.8-2.1V83.8c0-0.8,0.3-1.5,0.8-2.1c0.6-0.6,1.3-0.8,2.1-0.8H515.5 M515.5,75.9h-51.7c-2.1,0-4.1,0.8-5.6,2.3
			c-1.5,1.5-2.3,3.5-2.3,5.6v69.4c0,2.1,0.8,4.1,2.3,5.6c1.5,1.5,3.5,2.3,5.6,2.3h51.7c2.1,0,4.1-0.8,5.6-2.3
			c1.5-1.5,2.3-3.5,2.3-5.6v-14c0-2.1-0.8-4.1-2.3-5.6c-1.2-1.2-2.7-1.9-4.3-2.2c0.1-0.1,0.2-0.1,0.2-0.2c1.5-1.5,2.3-3.5,2.3-5.6
			v-14c0-2.1-0.8-4.1-2.3-5.6c-0.2-0.2-0.4-0.4-0.6-0.6c1.8-0.2,3.4-1,4.7-2.3c1.5-1.5,2.3-3.5,2.3-5.6V83.8c0-2.1-0.8-4.1-2.3-5.6
			C519.6,76.7,517.6,75.9,515.5,75.9L515.5,75.9z"/>
	</g>
	<g>
		<path class="st9" d="M528.6,158.7c-1.5,0-2.8-0.5-3.8-1.6c-1-1-1.6-2.4-1.6-3.8V83.8c0-1.5,0.5-2.8,1.6-3.8c1-1,2.4-1.6,3.8-1.6
			h51.7c1.5,0,2.8,0.5,3.8,1.6c1,1,1.6,2.4,1.6,3.8v13.8c0,1.5-0.5,2.8-1.6,3.8c-1,1-2.4,1.6-3.8,1.6h-31v3.2h27
			c1.5,0,2.8,0.5,3.8,1.6c1,1,1.6,2.4,1.6,3.8v14c0,1.5-0.5,2.8-1.6,3.8c-1,1-2.4,1.6-3.8,1.6h-27v2.8h31c1.5,0,2.8,0.5,3.8,1.6
			c1,1,1.6,2.4,1.6,3.8v14c0,1.5-0.5,2.8-1.6,3.8c-1,1-2.4,1.6-3.8,1.6H528.6z"/>
		<path class="st8" d="M580.2,80.9c0.8,0,1.5,0.3,2.1,0.8c0.6,0.6,0.8,1.3,0.8,2.1v13.8c0,0.8-0.3,1.5-0.8,2.1
			c-0.6,0.6-1.3,0.8-2.1,0.8h-31.6c-0.6,0-1,0.2-1.4,0.6c-0.4,0.4-0.6,0.8-0.6,1.4v4.3c0,0.6,0.2,1,0.6,1.4c0.4,0.4,0.8,0.6,1.4,0.6
			h27.5c0.8,0,1.5,0.3,2.1,0.8c0.6,0.6,0.8,1.3,0.8,2.1v14c0,0.8-0.3,1.5-0.8,2.1c-0.6,0.6-1.3,0.8-2.1,0.8h-27.5
			c-0.6,0-1,0.2-1.4,0.6c-0.4,0.4-0.6,0.8-0.6,1.4v3.9c0,0.6,0.2,1,0.6,1.4c0.4,0.4,0.8,0.6,1.4,0.6h31.6c0.8,0,1.5,0.3,2.1,0.8
			c0.6,0.6,0.8,1.3,0.8,2.1v14c0,0.8-0.3,1.5-0.8,2.1c-0.6,0.6-1.3,0.8-2.1,0.8h-51.7c-0.8,0-1.5-0.3-2.1-0.8
			c-0.6-0.6-0.8-1.3-0.8-2.1V83.8c0-0.8,0.3-1.5,0.8-2.1c0.6-0.6,1.3-0.8,2.1-0.8H580.2 M580.2,75.9h-51.7c-2.1,0-4.1,0.8-5.6,2.3
			c-1.5,1.5-2.3,3.5-2.3,5.6v69.4c0,2.1,0.8,4.1,2.3,5.6c1.5,1.5,3.5,2.3,5.6,2.3h51.7c2.1,0,4.1-0.8,5.6-2.3
			c1.5-1.5,2.3-3.5,2.3-5.6v-14c0-2.1-0.8-4.1-2.3-5.6c-1.2-1.2-2.7-1.9-4.3-2.2c0.1-0.1,0.2-0.1,0.2-0.2c1.5-1.5,2.3-3.5,2.3-5.6
			v-14c0-2.1-0.8-4.1-2.3-5.6c-0.2-0.2-0.4-0.4-0.6-0.6c1.8-0.2,3.4-1,4.7-2.3c1.5-1.5,2.3-3.5,2.3-5.6V83.8c0-2.1-0.8-4.1-2.3-5.6
			C584.3,76.7,582.4,75.9,580.2,75.9L580.2,75.9z"/>
	</g>
	<g>
		<path class="st9" d="M593.3,158.7c-1.6,0-2.9-0.6-4-1.7c-0.9-1-1.4-2.3-1.4-3.7V83.8c0-1.4,0.5-2.7,1.5-3.7c1-1.1,2.4-1.7,3.9-1.7
			h15.2c1.5,0,2.8,0.5,3.8,1.6c1,1,1.6,2.4,1.6,3.8V134l30,0c1.5,0,2.8,0.5,3.8,1.6c1,1,1.6,2.4,1.6,3.8v13.8c0,1.5-0.5,2.8-1.6,3.8
			c-1,1-2.4,1.6-3.8,1.6H593.3z"/>
		<path class="st8" d="M608.6,80.9c0.8,0,1.5,0.3,2.1,0.8c0.6,0.6,0.8,1.3,0.8,2.1v50.8c0,0.6,0.2,1,0.5,1.4
			c0.4,0.4,0.8,0.6,1.4,0.6H644c0.8,0,1.5,0.3,2.1,0.8c0.6,0.6,0.8,1.3,0.8,2.1v13.8c0,0.8-0.3,1.5-0.8,2.1
			c-0.6,0.6-1.3,0.8-2.1,0.8h-50.7c-0.9,0-1.6-0.3-2.1-0.9c-0.5-0.6-0.8-1.2-0.8-2V83.8c0-0.8,0.3-1.5,0.8-2
			c0.5-0.6,1.2-0.9,2.1-0.9H608.6 M608.6,75.9h-15.2c-2.3,0-4.3,0.9-5.8,2.5c-1.4,1.5-2.1,3.4-2.1,5.4v69.4c0,2.1,0.7,4,2.1,5.5
			c1.5,1.6,3.5,2.4,5.8,2.4H644c2.1,0,4.1-0.8,5.6-2.3c1.5-1.5,2.3-3.5,2.3-5.6v-13.8c0-2.1-0.8-4.1-2.3-5.6
			c-1.5-1.5-3.5-2.3-5.6-2.3h-27.5V83.8c0-2.1-0.8-4.1-2.3-5.6C612.7,76.7,610.7,75.9,608.6,75.9L608.6,75.9z"/>
	</g>
</g>
</svg>
