<?xml version="1.0" encoding="utf-8"?>
<!-- Generator: Adobe Illustrator 21.0.0, SVG Export Plug-In . SVG Version: 6.00 Build 0)  -->
<svg version="1.1" id="Layer_1" xmlns="http://www.w3.org/2000/svg" xmlns:xlink="http://www.w3.org/1999/xlink" x="0px" y="0px"
	 viewBox="0 0 645 217" style="enable-background:new 0 0 645 217;" xml:space="preserve">
<style type="text/css">
	.st0{fill:#00A7E0;}
	.st1{fill:#EC1C24;}
	.st2{fill:#F9EC00;}
	.st3{fill:#009F50;}
	.st4{fill:#30318E;}
	.st5{fill:#EC1164;}
	.st6{fill:#F17F21;}
	.st7{fill:#AFD136;}
	.st8{stroke:#FFFFFF;stroke-width:3;stroke-miterlimit:10;}
	.st9{fill:#727270;stroke:#FFFFFF;stroke-width:4;stroke-miterlimit:10;}
</style>
<polygon class="st0" points="107,96.3 85.9,47.6 117.1,-0.4 136.2,41.7 124.4,46.5 "/>
<polygon class="st1" points="104.8,97.2 55.4,77.7 43.6,21.6 86.8,38 81.9,49.7 "/>
<polygon class="st2" points="103.8,99.4 55.1,120.5 7.1,89.3 49.2,70.2 54.1,82 "/>
<polygon class="st3" points="104.7,101.6 85.2,151 29.1,162.9 45.5,119.6 57.2,124.5 "/>
<polygon class="st4" points="106.9,102.6 128,151.3 96.8,199.3 77.7,157.2 89.5,152.4 "/>
<polygon class="st5" points="109.1,101.7 158.5,121.2 170.4,177.3 127.1,160.9 132,149.2 "/>
<polygon class="st6" points="110.1,99.5 158.8,78.4 206.8,109.6 164.7,128.7 159.9,116.9 "/>
<polygon class="st7" points="109.2,97.3 128.7,47.9 184.8,36.1 168.4,79.3 156.7,74.4 "/>
<g>
	<path class="st8" d="M478.5,193.3c-0.2-0.7-0.7-1.2-1.4-1.5l-10.4-4.1c-0.4-0.1-0.7-0.2-1.1-0.2c-0.4,0-0.7,0.1-1.1,0.2
		c-0.7,0.3-1.2,0.7-1.5,1.3c-1.2,1.9-2.8,3.5-4.8,4.7c-2,1.2-4.3,1.8-6.7,1.8c-1.7,0-3.3-0.4-4.8-1.1c-1.5-0.7-2.9-1.7-4-2.9
		c-1.1-1.2-2-2.6-2.6-4.1c-0.6-1.6-0.9-3.2-0.9-4.9c0-1.7,0.3-3.3,0.9-4.9c0.6-1.6,1.5-3,2.6-4.2c1.1-1.2,2.5-2.2,4-2.9
		c1.5-0.7,3.1-1.1,4.8-1.1c2.6,0,4.9,0.6,6.7,1.6c1.8,1.1,3.5,2.7,4.8,4.8c0.4,0.6,0.9,1,1.6,1.3c0.4,0.1,0.7,0.2,1.1,0.2
		c0.4,0,0.7-0.1,1.1-0.2l10.4-4.1c0.7-0.3,1.2-0.9,1.5-1.6c0.2-0.7,0.2-1.4-0.2-2.1c-1.4-2.3-3-4.4-4.7-6.3c-1.7-1.9-3.7-3.6-5.9-5
		c-2.2-1.4-4.6-2.4-7.3-3.2c-2.7-0.8-5.7-1.1-9-1.1c-4,0-7.8,0.8-11.3,2.3c-3.5,1.5-6.6,3.6-9.2,6.1c-2.6,2.6-4.7,5.6-6.2,9.1
		c-1.5,3.5-2.3,7.2-2.3,11.1c0,3.9,0.8,7.7,2.3,11.1c1.5,3.5,3.6,6.5,6.2,9.1c2.6,2.6,5.7,4.6,9.2,6.1c3.5,1.5,7.3,2.3,11.3,2.3
		c3.2,0,6.1-0.4,8.8-1.1c2.7-0.7,5.1-1.8,7.3-3.2c2.2-1.3,4.2-3,5.9-4.9c1.7-1.9,3.3-4,4.8-6.4C478.6,194.7,478.7,194,478.5,193.3z"
		/>
	<path class="st8" d="M516.3,156.9c-0.3-0.6-0.7-1.1-1.3-1.6c-0.6-0.4-1.3-0.6-2-0.6h-10.2c-0.7,0-1.4,0.2-2.1,0.6
		c-0.6,0.4-1.1,0.9-1.3,1.6l-21.1,49.4c-0.3,0.6-0.4,1.1-0.3,1.6c0.1,0.5,0.3,0.9,0.6,1.2c0.3,0.3,0.6,0.6,1.1,0.7
		c0.4,0.1,0.7,0.2,1.1,0.2h12.5c0.7,0,1.4-0.2,2-0.6c0.6-0.4,1.1-0.9,1.3-1.5l2-4.4c0.1-0.3,0.3-0.5,0.6-0.7
		c0.3-0.2,0.6-0.3,0.9-0.3h15.4c0.3,0,0.6,0.1,0.9,0.3c0.3,0.2,0.6,0.5,0.7,0.8l1.9,4.3l0,0l0,0c0.3,0.6,0.8,1.1,1.4,1.5
		c0.6,0.4,1.3,0.6,2.1,0.6H535c1.5,0,2.1-0.7,2.4-1.2c0.5-1,0.4-1.8,0.1-2.3L516.3,156.9z M511.3,188c0,0-0.1,0-0.2,0h-6.5
		c-0.1,0-0.2,0-0.2,0c0,0,0-0.1,0.1-0.2l3.4-8.2c0.5,1.2,1,2.5,1.6,3.9c0.7,1.6,1.3,3,1.7,4.3l0,0.1L511.3,188
		C511.3,188,511.3,188,511.3,188z"/>
	<path class="st8" d="M584.2,199.4c-2-2.6-4-5.1-5.8-7.5c-0.1-0.2-0.1-0.3-0.1-0.3c0.1-0.2,0.2-0.4,0.4-0.5c1.2-0.8,2.4-1.8,3.3-2.9
		c1-1.2,1.8-2.5,2.5-3.9c0.7-1.4,1.3-3,1.6-4.6c0.4-1.6,0.6-3.2,0.6-4.9c0-2.9-0.5-5.7-1.5-8.1c-1-2.4-2.4-4.6-4.2-6.4
		c-1.8-1.8-3.9-3.2-6.4-4.2c-2.5-1-5.2-1.5-8.2-1.5h-22.7c-0.7,0-1.4,0.3-1.9,0.8c-0.5,0.5-0.8,1.2-0.8,1.9v49.9
		c0,0.8,0.3,1.4,0.8,1.9c0.5,0.5,1.2,0.8,2,0.8h10.9c0.8,0,1.4-0.3,2-0.8c0.5-0.5,0.8-1.2,0.8-1.9v-11.8c0-0.2,0.1-0.4,0.2-0.5
		c0.2-0.2,0.3-0.2,0.5-0.2h1.6c0.3,0,0.7,0.1,1.1,0.3c0.4,0.2,0.7,0.4,0.9,0.7c1.5,2.1,3,4.2,4.5,6.3c1.5,2.1,3.1,4.2,4.6,6.2
		c0.4,0.5,0.9,0.9,1.6,1.3c0.7,0.3,1.4,0.5,2,0.5h13.6c0.9,0,1.6-0.5,1.9-1.4c0.2-0.8,0.1-1.5-0.4-2.2
		C588.1,204.3,586.2,202,584.2,199.4z M557.5,170.8c0-0.2,0.1-0.4,0.2-0.5c0.2-0.2,0.3-0.2,0.5-0.2h7.7c0.8,0,1.5,0.2,2.1,0.5
		c0.6,0.3,1,0.7,1.3,1.2c0.3,0.5,0.6,1,0.7,1.6c0.1,0.6,0.2,1.1,0.2,1.5c0,0.8-0.1,1.4-0.4,2c-0.3,0.6-0.6,1-1.1,1.4
		c-0.4,0.4-0.9,0.7-1.4,0.8c-0.5,0.2-1,0.3-1.5,0.3h-7.7c-0.2,0-0.4-0.1-0.5-0.2c-0.2-0.2-0.2-0.3-0.2-0.5V170.8z"/>
	<path class="st8" d="M612.1,170.3c0.2-0.2,0.3-0.2,0.5-0.2h22.7c0.7,0,1.4-0.3,1.9-0.8c0.5-0.5,0.8-1.2,0.8-1.9v-9.9
		c0-0.7-0.3-1.4-0.8-1.9c-0.5-0.5-1.2-0.8-1.9-0.8h-37.1c-0.7,0-1.4,0.3-1.9,0.8c-0.5,0.5-0.8,1.2-0.8,1.9v49.9
		c0,0.7,0.3,1.4,0.8,1.9c0.5,0.5,1.2,0.8,1.9,0.8h37.1c0.7,0,1.4-0.3,1.9-0.8c0.5-0.5,0.8-1.2,0.8-1.9v-10.1c0-0.7-0.3-1.4-0.8-1.9
		c-0.5-0.5-1.2-0.8-1.9-0.8h-22.7c-0.2,0-0.4-0.1-0.5-0.2c-0.2-0.2-0.2-0.3-0.2-0.5V191c0-0.2,0.1-0.4,0.2-0.5
		c0.2-0.2,0.3-0.2,0.5-0.2h19.8c0.7,0,1.4-0.3,1.9-0.8c0.5-0.5,0.8-1.2,0.8-1.9v-10.1c0-0.7-0.3-1.4-0.8-1.9
		c-0.5-0.5-1.2-0.8-1.9-0.8h-19.8c-0.2,0-0.4-0.1-0.5-0.2c-0.2-0.2-0.2-0.3-0.2-0.5v-3.1C611.9,170.6,611.9,170.4,612.1,170.3z"/>
</g>
<g>
	<path class="st9" d="M149.5,80.2c-2.4-2.5-5.4-4.4-8.7-5.9c-3.3-1.4-6.9-2.1-10.6-2.1H99.9c-0.8,0-1.5,0.3-2,0.8
		c-0.5,0.5-0.8,1.2-0.8,2v67.8c0,0.8,0.3,1.5,0.8,2c0.5,0.5,1.2,0.8,2,0.8h14.9c0.8,0,1.5-0.3,2-0.8c0.5-0.5,0.8-1.2,0.8-2v-14.8
		c0-0.5,0.2-1,0.6-1.4c0.4-0.4,0.8-0.6,1.4-0.6h8.6c4.9,0,9.2-0.7,12.8-2.1c3.7-1.4,6.7-3.3,9.2-5.7c2.5-2.4,4.3-5.2,5.5-8.5
		c1.2-3.2,1.8-6.8,1.8-10.5c0-3.7-0.7-7.3-2.2-10.6C153.9,85.5,152,82.6,149.5,80.2z M130.2,106.8h-10.7c-0.5,0-1-0.2-1.4-0.6
		c-0.4-0.4-0.6-0.8-0.6-1.4V93.3c0-0.5,0.2-1,0.6-1.4c0.4-0.4,0.8-0.6,1.4-0.6h9.4c1.3,0,2.5,0.2,3.5,0.7c1,0.5,1.9,1.1,2.5,1.8
		c0.7,0.7,1.2,1.6,1.5,2.6c0.3,1,0.5,2,0.5,3c0,1.9-0.6,3.7-1.7,5.2C134.3,106.1,132.6,106.8,130.2,106.8z"/>
	<path class="st9" d="M179.4,72.3h-14.9c-0.8,0-1.5,0.3-2.1,0.8c-0.5,0.5-0.8,1.2-0.8,2v67.7c0,0.8,0.3,1.4,0.8,2
		c0.5,0.6,1.2,0.8,2.1,0.8h14.9c0.8,0,1.5-0.3,2-0.8c0.5-0.5,0.8-1.2,0.8-2V75.1c0-0.8-0.3-1.5-0.8-2
		C180.9,72.6,180.2,72.3,179.4,72.3z"/>
	<path class="st9" d="M257.4,72.2h-14.7c-0.8,0-1.5,0.3-2,0.8c-0.5,0.5-0.8,1.2-0.8,2v35.5c0,0.6-0.2,0.6-0.3,0.6
		c-0.3,0-0.5-0.1-0.8-0.5l-25.8-36.4c-0.4-0.6-1.1-1.1-1.8-1.5c-0.8-0.4-1.6-0.6-2.3-0.6h-14.9c-0.8,0-1.5,0.3-2,0.8
		c-0.5,0.5-0.8,1.2-0.8,2v67.8c0,0.8,0.3,1.5,0.8,2c0.5,0.5,1.2,0.8,2,0.8h14.8c0.8,0,1.5-0.3,2-0.8c0.6-0.5,0.8-1.2,0.8-2v-35.5
		c0-0.6,0.2-0.7,0.3-0.7c0.1,0,0.4-0.1,0.8,0.5l25.8,36.4c0.4,0.6,1,1.1,1.8,1.5c0.8,0.4,1.6,0.7,2.3,0.7h14.6c0.8,0,1.5-0.3,2-0.8
		c0.5-0.5,0.8-1.2,0.8-2V75c0-0.8-0.3-1.5-0.8-2C258.9,72.5,258.2,72.2,257.4,72.2z"/>
	<path class="st9" d="M374.3,72.2h-16.1c-0.8,0-1.6,0.2-2.2,0.7c-0.7,0.5-1.1,1.1-1.5,1.8l-11.4,33.2c-0.3,0.7-0.6,0.7-0.7,0.7
		c-0.1,0-0.4,0-0.6-0.7l-10.9-33.1c-0.2-0.8-0.7-1.4-1.4-1.9c-0.7-0.5-1.4-0.7-2.2-0.7h-13.2c-0.8,0-1.6,0.2-2.2,0.7
		c-0.7,0.5-1.1,1.1-1.4,1.9l-10.9,32.9c-0.2,0.7-0.5,0.7-0.6,0.7c-0.1,0-0.4,0-0.6-0.7l-11.3-33c-0.2-0.7-0.7-1.3-1.4-1.8
		c-0.7-0.5-1.4-0.7-2.1-0.7h-16.2c-1.1,0-1.7,0.6-1.9,1.1c-0.4,0.7-0.4,1.5,0,2.4l23.8,67.4c0.2,0.6,0.6,1.2,1.2,1.8
		c0.7,0.6,1.4,0.8,2.3,0.8h12.8c0.8,0,1.6-0.2,2.2-0.7c0.7-0.5,1.1-1.1,1.4-1.9l10.9-33c0.2-0.7,0.5-0.7,0.6-0.7s0.4,0,0.6,0.7
		l10.9,33c0.2,0.8,0.7,1.4,1.4,1.9c0.7,0.5,1.4,0.7,2.2,0.7h12.8c0.8,0,1.6-0.2,2.2-0.7c0.7-0.5,1.1-1.1,1.5-1.9l24-67.7
		c0.2-0.7,0.2-1.4-0.1-2.1C376,72.8,375.5,72.2,374.3,72.2z"/>
	<path class="st9" d="M443.2,72.2h-14.9c-0.9,0-1.6,0.3-2.1,0.8c-0.5,0.5-0.8,1.2-0.8,2v23.4c0,0.5-0.2,1-0.6,1.4
		c-0.4,0.4-0.8,0.6-1.4,0.6h-20.3c-0.6,0-1.1-0.2-1.4-0.5c-0.4-0.4-0.5-0.8-0.5-1.4V75c0-0.8-0.3-1.5-0.8-2c-0.6-0.5-1.2-0.8-2-0.8
		h-14.8c-0.9,0-1.6,0.3-2.1,0.8c-0.5,0.5-0.8,1.2-0.8,2v67.8c0,0.8,0.3,1.4,0.8,2c0.5,0.6,1.2,0.8,2.1,0.8h14.8c0.8,0,1.5-0.3,2-0.8
		c0.6-0.5,0.8-1.2,0.8-2v-21.2c0-0.5,0.2-1,0.5-1.4c0.3-0.4,0.8-0.5,1.4-0.5h20.3c0.5,0,1,0.2,1.4,0.6c0.4,0.4,0.6,0.8,0.6,1.4v21.2
		c0,0.8,0.3,1.4,0.8,2c0.5,0.6,1.2,0.8,2.1,0.8h14.9c0.8,0,1.5-0.3,2-0.8c0.5-0.5,0.8-1.2,0.8-2V75c0-0.8-0.3-1.5-0.8-2
		C444.7,72.5,444,72.2,443.2,72.2z"/>
	<path class="st9" d="M509.5,72.2h-50.5c-0.8,0-1.5,0.3-2,0.8c-0.5,0.5-0.8,1.2-0.8,2v67.8c0,0.8,0.3,1.5,0.8,2
		c0.5,0.5,1.2,0.8,2,0.8h50.5c0.8,0,1.5-0.3,2-0.8c0.5-0.5,0.8-1.2,0.8-2v-13.7c0-0.8-0.3-1.5-0.8-2c-0.6-0.5-1.2-0.8-2-0.8h-30.8
		c-0.5,0-1-0.2-1.4-0.6c-0.4-0.4-0.6-0.8-0.6-1.4v-3.8c0-0.5,0.2-1,0.6-1.4c0.4-0.4,0.8-0.6,1.4-0.6h26.9c0.8,0,1.5-0.3,2-0.8
		c0.5-0.5,0.8-1.2,0.8-2v-13.7c0-0.8-0.3-1.5-0.8-2c-0.6-0.5-1.2-0.8-2-0.8h-26.9c-0.5,0-1-0.2-1.4-0.6c-0.4-0.4-0.6-0.8-0.6-1.4
		v-4.2c0-0.5,0.2-1,0.6-1.4c0.4-0.4,0.8-0.6,1.4-0.6h30.8c0.8,0,1.5-0.3,2-0.8c0.5-0.5,0.8-1.2,0.8-2V75c0-0.8-0.3-1.5-0.8-2
		C511,72.5,510.3,72.2,509.5,72.2z"/>
	<path class="st9" d="M571.8,72.2h-50.5c-0.8,0-1.5,0.3-2,0.8c-0.5,0.5-0.8,1.2-0.8,2v67.8c0,0.8,0.3,1.5,0.8,2
		c0.5,0.5,1.2,0.8,2,0.8h50.5c0.8,0,1.5-0.3,2-0.8c0.5-0.5,0.8-1.2,0.8-2v-13.7c0-0.8-0.3-1.5-0.8-2c-0.6-0.5-1.2-0.8-2-0.8H541
		c-0.5,0-1-0.2-1.4-0.6c-0.4-0.4-0.6-0.8-0.6-1.4v-3.8c0-0.5,0.2-1,0.6-1.4c0.4-0.4,0.8-0.6,1.4-0.6h26.9c0.8,0,1.5-0.3,2-0.8
		c0.5-0.5,0.8-1.2,0.8-2v-13.7c0-0.8-0.3-1.5-0.8-2c-0.6-0.5-1.2-0.8-2-0.8H541c-0.5,0-1-0.2-1.4-0.6c-0.4-0.4-0.6-0.8-0.6-1.4v-4.2
		c0-0.5,0.2-1,0.6-1.4c0.4-0.4,0.8-0.6,1.4-0.6h30.8c0.8,0,1.5-0.3,2-0.8c0.5-0.5,0.8-1.2,0.8-2V75c0-0.8-0.3-1.5-0.8-2
		C573.3,72.5,572.6,72.2,571.8,72.2z"/>
	<path class="st9" d="M637.1,127.4c-0.6-0.5-1.2-0.8-2-0.8h-29.8c-0.6,0-1.1-0.2-1.4-0.6c-0.4-0.4-0.5-0.8-0.5-1.4V75
		c0-0.8-0.3-1.5-0.8-2c-0.5-0.5-1.2-0.8-2-0.8h-14.9c-0.9,0-1.6,0.3-2.1,0.8c-0.5,0.5-0.8,1.2-0.8,2v67.8c0,0.8,0.3,1.4,0.8,2
		c0.5,0.6,1.2,0.8,2.1,0.8h49.5c0.8,0,1.5-0.3,2-0.8c0.5-0.5,0.8-1.2,0.8-2v-13.5C637.9,128.6,637.6,127.9,637.1,127.4z"/>
</g>
</svg>
